<?xml version="1.0" encoding="UTF-8" standalone="no"?>
<svg
   xmlns:dc="http://purl.org/dc/elements/1.1/"
   xmlns:cc="http://creativecommons.org/ns#"
   xmlns:rdf="http://www.w3.org/1999/02/22-rdf-syntax-ns#"
   xmlns:svg="http://www.w3.org/2000/svg"
   xmlns="http://www.w3.org/2000/svg"
   xmlns:sodipodi="http://sodipodi.sourceforge.net/DTD/sodipodi-0.dtd"
   xmlns:inkscape="http://www.inkscape.org/namespaces/inkscape"
   width="21.66795mm"
   height="21.768799mm"
   viewBox="0 0 21.66795 21.768799"
   version="1.1"
   id="svg8"
   inkscape:version="1.0.1 (3bc2e813f5, 2020-09-07)"
   sodipodi:docname="1_2.svg">
  <defs
     id="defs2">
    <marker
       style="overflow:visible"
       id="Arrow1Lstart"
       refX="0"
       refY="0"
       orient="auto"
       inkscape:stockid="Arrow1Lstart"
       inkscape:isstock="true">
      <path
         transform="matrix(0.8,0,0,0.8,10,0)"
         style="fill-rule:evenodd;stroke:#000000;stroke-width:1pt"
         d="M 0,0 5,-5 -12.5,0 5,5 Z"
         id="path835" />
    </marker>
  </defs>
  <sodipodi:namedview
     id="base"
     pagecolor="#ffffff"
     bordercolor="#666666"
     borderopacity="1.0"
     inkscape:pageopacity="0.0"
     inkscape:pageshadow="2"
     inkscape:zoom="11.2"
     inkscape:cx="38.427435"
     inkscape:cy="40.019531"
     inkscape:document-units="mm"
     inkscape:current-layer="layer1"
     inkscape:document-rotation="0"
     showgrid="false"
     inkscape:window-width="2560"
     inkscape:window-height="1387"
     inkscape:window-x="2552"
     inkscape:window-y="-8"
     inkscape:window-maximized="1" />
  <metadata
     id="metadata5">
    <rdf:RDF>
      <cc:Work
         rdf:about="">
        <dc:format>image/svg+xml</dc:format>
        <dc:type
           rdf:resource="http://purl.org/dc/dcmitype/StillImage" />
        <dc:title />
      </cc:Work>
    </rdf:RDF>
  </metadata>
  <g
     inkscape:label="Ebene 1"
     inkscape:groupmode="layer"
     id="layer1"
     transform="translate(-33.696345,-36.335829)">
    <rect
       style="fill:none;fill-rule:evenodd;stroke:#000000;stroke-width:0.333262;stroke-linecap:round;stroke-linejoin:round;stroke-miterlimit:5.6;stroke-dasharray:none;stroke-opacity:1;paint-order:stroke fill markers"
       id="rect10"
       width="21.334688"
       height="21.435537"
       x="33.862976"
       y="36.50246"
       ry="1.7584628" />
    <rect
       style="fill:#000000;fill-opacity:1;stroke:#000000;stroke-width:0.264999;stroke-linecap:round;stroke-linejoin:round;stroke-miterlimit:5.6;stroke-dasharray:none;stroke-opacity:1;paint-order:stroke fill markers"
       id="rect1107"
       width="6.0003719"
       height="6.0239954"
       x="34.51395"
       y="37.136162"
       ry="1.1103051" />
    <rect
       style="fill:#000000;fill-opacity:1;stroke:#000000;stroke-width:0.264999;stroke-linecap:round;stroke-linejoin:round;stroke-miterlimit:5.6;stroke-dasharray:none;stroke-opacity:1;paint-order:stroke fill markers"
       id="rect1107-3"
       width="6.0003719"
       height="6.0239954"
       x="41.572655"
       y="37.136162"
       ry="1.1103051" />
    <rect
       style="fill:none;stroke:#000000;stroke-width:0.264999;stroke-linecap:round;stroke-linejoin:round;stroke-miterlimit:5.6;stroke-dasharray:none;stroke-opacity:1;paint-order:stroke fill markers"
       id="rect1107-3-6"
       width="6.0003719"
       height="6.0239954"
       x="48.631363"
       y="37.136162"
       ry="1.1103051" />
    <rect
       style="fill:none;stroke:#000000;stroke-width:0.264999;stroke-linecap:round;stroke-linejoin:round;stroke-miterlimit:5.6;stroke-dasharray:none;stroke-opacity:1;paint-order:stroke fill markers"
       id="rect1107-36"
       width="6.0003719"
       height="6.0239954"
       x="34.51395"
       y="44.218491"
       ry="1.1103051" />
    <rect
       style="fill:none;stroke:#000000;stroke-width:0.264999;stroke-linecap:round;stroke-linejoin:round;stroke-miterlimit:5.6;stroke-dasharray:none;stroke-opacity:1;paint-order:stroke fill markers"
       id="rect1107-3-2"
       width="6.0003719"
       height="6.0239954"
       x="41.572655"
       y="44.218491"
       ry="1.1103051" />
    <rect
       style="fill:none;stroke:#000000;stroke-width:0.264999;stroke-linecap:round;stroke-linejoin:round;stroke-miterlimit:5.6;stroke-dasharray:none;stroke-opacity:1;paint-order:stroke fill markers"
       id="rect1107-3-6-9"
       width="6.0003719"
       height="6.0239954"
       x="48.631363"
       y="44.218491"
       ry="1.1103051" />
    <rect
       style="fill:none;stroke:#000000;stroke-width:0.264999;stroke-linecap:round;stroke-linejoin:round;stroke-miterlimit:5.6;stroke-dasharray:none;stroke-opacity:1;paint-order:stroke fill markers"
       id="rect1107-5"
       width="6.0003719"
       height="6.0239954"
       x="34.51395"
       y="51.300819"
       ry="1.1103051" />
    <rect
       style="fill:none;stroke:#000000;stroke-width:0.264999;stroke-linecap:round;stroke-linejoin:round;stroke-miterlimit:5.6;stroke-dasharray:none;stroke-opacity:1;paint-order:stroke fill markers"
       id="rect1107-3-8"
       width="6.0003719"
       height="6.0239954"
       x="41.572655"
       y="51.300819"
       ry="1.1103051" />
    <rect
       style="fill:none;stroke:#000000;stroke-width:0.264999;stroke-linecap:round;stroke-linejoin:round;stroke-miterlimit:5.6;stroke-dasharray:none;stroke-opacity:1;paint-order:stroke fill markers"
       id="rect1107-3-6-4"
       width="6.0003719"
       height="6.0239954"
       x="48.631363"
       y="51.300819"
       ry="1.1103051" />
  </g>
</svg>
